41522 397845 443
888883 710791 525
346581 989669 525
976717 945909 458
191575 98460 383
945808 95051 525
794719 420105 509
162636 800421 509
389138 76212 443
580802 450322 470
153134 404263 443
183530 370050 443
553209 963673 525
650325 693149 442
270859 407128 441
930999 971520 507
632096 441976 509
206184 111313 383
626855 240251 509
998808 669933 525
372163 230188 443
32768 819206 509
91393 89705 315
53265 598301 470
308147 988562 525
830302 970069 525
164934 364656 443
275988 214818 443
365390 690759 509
369860 232957 441
190702 790104 509
850182 126384 525
739122 460165 509
35817 474136 449
29239 288678 443
107581 562244 470
40419 215535 383
184226 512474 470
433823 673740 509
520445 911153 525
788870 992693 525
245604 47616 443
96502 660265 509
716519 576374 509
155771 423920 449
721640 623710 509
956589 498477 525
627563 656992 429
171839 899595 525
690095 333645 509
286375 622690 470
762056 690564 504
559776 408952 470
801715 922406 525
109315 529347 470
66647 918859 525
488941 434940 444
856637 999954 507
602789 204740 470
916242 270512 525
205238 901468 525
294969 903780 525
808993 777749 468
388046 359521 423
451140 501368 444
832453 339173 509
366523 204637 443
230067 133093 386
896083 54844 525
547319 154928 470
125278 239004 443
845898 296470 525
800575 857599 525
656134 828224 504
393414 391564 330
574860 57458 470
21541 847803 525
316660 243373 407
318652 472600 449
122323 986267 525
933678 666094 525
619134 836892 509
234463 155387 443
863023 607406 525
584833 111999 470
222504 479051 449
253397 231993 381
211821 284544 443
306941 383896 441
562048 585292 434
927200 131829 525
517194 709948 509
762386 9985 509
68191 230637 443
974206 846464 507
273417 226220 443
160631 631856 509
860324 262593 525
990038 11703 525
590807 716203 509
738035 438058 509
870826 289177 525
177860 374329 443
119871 858282 525
848247 846322 419
547586 215489 470
45588 478174 449
329461 690702 509
132555 41304 354
670936 948238 525
853117 202328 525
723579 901422 525
284263 309669 389
220981 715727 509
891003 712902 525
950305 167218 525
316295 577343 470
19959 838143 525
729300 879098 525
242569 197042 443
237156 835179 509
185039 779962 509
363017 558796 470
144441 192892 383
789823 148937 509
813099 676903 504
511801 251072 449
224437 687655 509
508927 624613 470
312351 631290 509
728643 454183 509
712564 527344 509
761721 492070 509
862930 149803 525
612629 188869 470
13475 751176 509
277573 157885 443
630278 534900 509
7510 800056 509
302133 508507 449
211555 501735 449
122534 626300 470
85953 494003 449
327495 975783 525
585414 489983 470
204636 966290 525
768345 408624 509
10829 136115 354
238130 842014 525
378921 715090 509
962060 38697 525
639537 670883 442
175240 960673 525
428624 332035 449
579135 52960 470
701176 545290 509
57965 447422 449
772703 187770 509
13242 682720 509
817618 845591 525
348506 971969 525
710705 257707 509
834804 983740 525
403984 311133 441
363248 485587 449
3607 186252 383
459746 788680 509
688507 191495 509
337700 293963 384
395379 385191 436
628690 858359 525
909362 24429 525
650081 777056 504
986436 496142 525
920213 131125 525
830760 767169 468
728091 967597 525
139184 778912 509
463249 634113 509
561394 818567 509
146798 115605 375
54179 705046 509
998931 503165 525
57351 997801 525
373051 342357 441
220134 996663 525
990078 788751 525
747151 420686 509
65608 713767 509
578548 14253 470
474823 340946 449
4039 368591 443
65916 361014 443
313094 182728 443
263577 306320 407
11998 219024 386
1529 619341 470
60044 924633 525
253241 778101 509
634156 15727 509
102756 474107 449
672500 675195 367
795192 395517 509
111211 755358 509
327106 485247 449
571079 275880 470
991165 12545 525
721742 823666 468
572197 301435 470
260334 179945 443
484471 841187 525
949555 52470 525
234915 699431 509
983525 335782 525
843096 850101 419
172374 500922 449
349972 592914 470
473627 372862 449
626989 1478 509
706815 59761 509
722088 101384 509
746067 780699 468
179677 913873 525
492989 982581 525
454266 541561 470
444719 147657 449
582912 785269 509
571712 319805 470
82236 670138 509
952516 850946 507
457590 501560 444
619357 975663 525
906293 763176 525
642044 386396 509
538951 247950 470
89890 993648 525
685880 5652 509
395177 592344 470
688773 179673 509
473383 228553 449
73111 260379 443
590366 126046 470
674436 532781 509
847211 977291 507
350109 976856 525
683730 994818 525
311039 615857 470
100761 547673 470
599773 142622 470
190086 551872 470
